MACS 30500 LECTURE 10
…
<!-- https://willhipson.netlify.app/post/dplyr_across/dplyr_across/ -->

---

## More examples using the [`worldbank` data](https://data.worldbank.org/)

```r
data("worldbank", package = "rcis")
worldbank
```

```
## # A tibble: 78 x 14
##    iso3c date  iso2c country   perc_en~1 rnd_g~2 percg~3 real_~4 gdp_c~5 top10~6
##    <chr> <chr> <chr> <chr>         <dbl>   <dbl>   <dbl>   <dbl>   <dbl>   <dbl>
##  1 ARG   2005  AR    Argentina      89.1   0.379    15.5   6198.   5110.    35  
##  2 ARG   2006  AR    Argentina      88.7   0.400    22.1   7388.   5919.    33.9
##  3 ARG   2007  AR    Argentina      89.2   0.402    22.8   8182.   7245.    33.8
##  4 ARG   2008  AR    Argentina      90.7   0.421    21.6   8576.   9021.    32.5
##  5 ARG   2009  AR    Argentina      89.6   0.519    18.9   7904.   8225.    31.4
##  6 ARG   2010  AR    Argentina      89.5   0.518    17.9   8803.  10386.    32  
##  7 ARG   2011  AR    Argentina      88.9   0.537    17.9   9528.  12849.    31  
##  8 ARG   2012  AR    Argentina      89.0   0.609    16.5   9301.  13083.    29.7
##  9 ARG   2013  AR    Argentina      89.0   0.612    15.3   9367.  13080.    29.4
## 10 ARG   2014  AR    Argentina      87.7   0.613    16.1   8903.  12335.    29.9
## # ... with 68 more rows, 4 more variables: employment_ratio <dbl>,
## #   life_exp <dbl>, pop_growth <dbl>, pop <dbl>, and abbreviated variable names
## #   1: perc_energy_fosfuel, 2: rnd_gdpshare, 3: percgni_adj_gross_savings,
## #   4: real_netinc_percap, 5: gdp_capita, 6: top10perc_incshare
```
…
