…
`glimpse()` is part of the `tibble` package and is a transposed version of `print()`: columns run down the page, and data runs across. With a data frame with multiple columns, sometimes there is not enough horizontal space on the screen to print each column. By transposing the data frame, we can see all the columns and the values recorded for the initial rows.

Type `?scorecard` in the console to open up the help file for this data set. This includes the documentation for all the variables. Use your knowledge of the `dplyr` functions to perform the following tasks.

## Generate a data frame of schools with a greater than 40% share of first-generation students

{{< spoiler text="Click for the solution" >}}


```r
filter(.data = scorecard, firstgen > .40)
```

```
## # A tibble: 356 x 14
##    unitid name  state type  admrate satavg  cost netcost avgfa~1 pctpell compr~2
##     <dbl> <chr> <chr> <fct>   <dbl>  <dbl> <dbl>   <dbl>   <dbl>   <dbl>   <dbl>
##  1 101189 Faul~ AL    Priv~   0.783   1066 34317   20715   54009   0.488   0.329
##  2 101365 Herz~ AL    Priv~   0.783     NA 30119   26680   54684   0.706   0.28 
##  3 101541 Juds~ AL    Priv~   0.372   1020 32691   16827   52020   0.545   0.364
##  4 101587 Univ~ AL    Publ~   0.349   1041 21657   15514   58329   0.535   0.350
##  5 102270 Stil~ AL    Priv~   0.330     NA 25413   18352   43605   0.709   0.272
##  6 104717 Gran~ AZ    Priv~   0.769     NA 31213   21020   60741   0.454   0.408
##  7 106467 Arka~ AR    Publ~   0.947     NA 18358   10772   61812   0.361   0.384
##  8 107983 Sout~ AR    Publ~   0.651   1085 22579   14270   61650   0.487   0.436
##  9 110361 Cali~ CA    Priv~   0.783   1096 46261   24707   88335   0.453   0.630
## 10 110486 Cali~ CA    Publ~   0.807     NA 16660    5318   86760   0.619   0.430
## # ... with 346 more rows, 3 more variables: firstgen <dbl>, debt <dbl>,
## #   locale <fct>, and abbreviated variable names 1: avgfacsal, 2: comprate
```
…
## Calculate for each school how many students it takes to pay the average faculty member's salary and generate a data frame with the school's name and the calculated value

Note: use the net cost of attendance.

{{< spoiler text="Click for the solution" >}}


```r
scorecard %>%
  mutate(ratio = avgfacsal / netcost) %>%
  select(name, ratio)
```

```
## # A tibble: 1,732 x 2
##    name                                ratio
##    <chr>                               <dbl>
##  1 Alabama A & M University             4.63
##  2 University of Alabama at Birmingham  5.87
##  3 University of Alabama in Huntsville  5.50
##  4 Alabama State University             4.76
##  5 The University of Alabama            4.10
##  6 Auburn University at Montgomery      5.10
##  7 Auburn University                    4.01
##  8 Birmingham-Southern College          2.56
##  9 Faulkner University                  2.61
## 10 Herzing University-Birmingham        2.05
## # ... with 1,722 more rows
```
…
