Data wrangling: tidy data
…
* Comma separated csv `read_csv()`
* Semi column separated csv `read_csv2()`
* Tab separated files `read_tsv()`
* RDS `readRDS()` or `read_rds()`
* Excel `read_excel()`
* SPSS/Stata `haven` package

---
<!--
## `challenge`

To illustrate these different file formats, we use the challange.csv dataset from the readings:

```
## # A tibble: 2,000 x 2
##        x y     
##    <dbl> <date>
##  1   404 NA    
##  2  4172 NA    
##  3  3004 NA    
##  4   787 NA    
##  5    37 NA    
##  6  2332 NA    
##  7  2489 NA    
##  8  1449 NA    
##  9  3665 NA    
## 10  3863 NA    
## # ... with 1,990 more rows
```
…
---

## `readxl`

From the `readxl` library, part of `tidyverse` https://readxl.tidyverse.org/
Use for files you get from sources when you do not have a csv option

```r
library(readxl)
xlsx_example <- readxl_example(path = "datasets.xlsx")
read_excel(path = xlsx_example)
```

```
## # A tibble: 150 x 5
##    Sepal.Length Sepal.Width Petal.Length Petal.Width Species
##           <dbl>       <dbl>        <dbl>       <dbl> <chr>  
##  1          5.1         3.5          1.4         0.2 setosa 
##  2          4.9         3            1.4         0.2 setosa 
##  3          4.7         3.2          1.3         0.2 setosa 
##  4          4.6         3.1          1.5         0.2 setosa 
##  5          5           3.6          1.4         0.2 setosa 
##  6          5.4         3.9          1.7         0.4 setosa 
##  7          4.6         3.4          1.4         0.3 setosa 
##  8          5           3.4          1.5         0.2 setosa 
##  9          4.4         2.9          1.4         0.2 setosa 
## 10          4.9         3.1          1.5         0.1 setosa 
## # ... with 140 more rows
```
…
```r
excel_sheets(path = xlsx_example)
```

```
## [1] "iris"     "mtcars"   "chickwts" "quakes"
```

```r
read_excel(path = xlsx_example, sheet = "chickwts")
```

```
## # A tibble: 71 x 2
##    weight feed     
##     <dbl> <chr>    
##  1    179 horsebean
##  2    160 horsebean
##  3    136 horsebean
##  4    227 horsebean
##  5    217 horsebean
##  6    168 horsebean
##  7    108 horsebean
##  8    124 horsebean
##  9    143 horsebean
## 10    140 horsebean
## # ... with 61 more rows
```

---

## `haven` and SAS

```r
library(haven)

read_sas(data_file = system.file("examples", "iris.sas7bdat",
  package = "haven"
))
```

```
## # A tibble: 150 x 5
##    Sepal_Length Sepal_Width Petal_Length Petal_Width Species
##           <dbl>       <dbl>        <dbl>       <dbl> <chr>  
##  1          5.1         3.5          1.4         0.2 setosa 
##  2          4.9         3            1.4         0.2 setosa 
##  3          4.7         3.2          1.3         0.2 setosa 
##  4          4.6         3.1          1.5         0.2 setosa 
##  5          5           3.6          1.4         0.2 setosa 
##  6          5.4         3.9          1.7         0.4 setosa 
##  7          4.6         3.4          1.4         0.3 setosa 
##  8          5           3.4          1.5         0.2 setosa 
##  9          4.4         2.9          1.4         0.2 setosa 
## 10          4.9         3.1          1.5         0.1 setosa 
## # ... with 140 more rows
```

---

## `haven` and SPSS

```r
read_sav(file = system.file("examples", "iris.sav",
  package = "haven"
))
```

```
## # A tibble: 150 x 5
##    Sepal.Length Sepal.Width Petal.Length Petal.Width Species   
##           <dbl>       <dbl>        <dbl>       <dbl> <dbl+lbl> 
##  1          5.1         3.5          1.4         0.2 1 [setosa]
##  2          4.9         3            1.4         0.2 1 [setosa]
##  3          4.7         3.2          1.3         0.2 1 [setosa]
##  4          4.6         3.1          1.5         0.2 1 [setosa]
##  5          5           3.6          1.4         0.2 1 [setosa]
##  6          5.4         3.9          1.7         0.4 1 [setosa]
##  7          4.6         3.4          1.4         0.3 1 [setosa]
##  8          5           3.4          1.5         0.2 1 [setosa]
##  9          4.4         2.9          1.4         0.2 1 [setosa]
## 10          4.9         3.1          1.5         0.1 1 [setosa]
## # ... with 140 more rows
```

---

## `haven` and Stata

```r
read_dta(file = system.file("examples", "iris.dta",
  package = "haven"
))
```

```
## # A tibble: 150 x 5
##    sepallength sepalwidth petallength petalwidth species
##          <dbl>      <dbl>       <dbl>      <dbl> <chr>  
##  1        5.10       3.5         1.40      0.200 setosa 
##  2        4.90       3           1.40      0.200 setosa 
##  3        4.70       3.20        1.30      0.200 setosa 
##  4        4.60       3.10        1.5       0.200 setosa 
##  5        5          3.60        1.40      0.200 setosa 
##  6        5.40       3.90        1.70      0.400 setosa 
##  7        4.60       3.40        1.40      0.300 setosa 
##  8        5          3.40        1.5       0.200 setosa 
##  9        4.40       2.90        1.40      0.200 setosa 
## 10        4.90       3.10        1.5       0.100 setosa 
## # ... with 140 more rows
```
…
