Text analysis: fundamentals
…
Examples of data cleaning and pre-processing using R tidyverse: 

Example 1: **book 1.2 Emily Dickinson example**

Example 2: **book 1.3 Jane Austen example**

They are both in your in-class materials for today.

---

# Get text corpa

```
## # A tibble: 73,422 x 4
##    text                    book                linenumber chapter
##    <chr>                   <fct>                    <int>   <int>
##  1 "SENSE AND SENSIBILITY" Sense & Sensibility          1       0
##  2 ""                      Sense & Sensibility          2       0
##  3 "by Jane Austen"        Sense & Sensibility          3       0
##  4 ""                      Sense & Sensibility          4       0
##  5 "(1811)"                Sense & Sensibility          5       0
##  6 ""                      Sense & Sensibility          6       0
##  7 ""                      Sense & Sensibility          7       0
##  8 ""                      Sense & Sensibility          8       0
##  9 ""                      Sense & Sensibility          9       0
## 10 "CHAPTER 1"             Sense & Sensibility         10       1
## # ... with 73,412 more rows
```

---

# Tokenize text

```r
(tidy_books <- books %>%
   unnest_tokens(output = word, input = text))
```

```
## # A tibble: 725,055 x 4
##    book                linenumber chapter word       
##    <fct>                    <int>   <int> <chr>      
##  1 Sense & Sensibility          1       0 sense      
##  2 Sense & Sensibility          1       0 and        
##  3 Sense & Sensibility          1       0 sensibility
##  4 Sense & Sensibility          3       0 by         
##  5 Sense & Sensibility          3       0 jane       
##  6 Sense & Sensibility          3       0 austen     
##  7 Sense & Sensibility          5       0 1811       
##  8 Sense & Sensibility         10       1 chapter    
##  9 Sense & Sensibility         10       1 1          
## 10 Sense & Sensibility         13       1 the        
## # ... with 725,045 more rows
```
…
# Sentiment analysis

> I am happy

---

# Dictionaries

```r
get_sentiments("bing")
```

```
## # A tibble: 6,786 x 2
##    word        sentiment
##    <chr>       <chr>    
##  1 2-faces     negative 
##  2 abnormal    negative 
##  3 abolish     negative 
##  4 abominable  negative 
##  5 abominably  negative 
##  6 abominate   negative 
##  7 abomination negative 
##  8 abort       negative 
##  9 aborted     negative 
## 10 aborts      negative 
## # ... with 6,776 more rows
```
…
<div style="width:100%;height:0;padding-bottom:56%;position:relative;"><iframe src="https://giphy.com/embed/2wXrSikk2c8llaunlr" width="100%" height="100%" style="position:absolute" frameBorder="0" class="giphy-embed" allowFullScreen></iframe></div>

---

# Calculate sentiment

<img src="index_files/figure-html/janeausten-sentiment-1.png" width="80%" style="display: block; margin: auto;" />

---

# Load Harry Potter text

```
## # A tibble: 1,089,386 x 2
## # Groups:   book [7]
##    book               word   
##    <fct>              <chr>  
##  1 philosophers_stone the    
##  2 philosophers_stone boy    
##  3 philosophers_stone who    
##  4 philosophers_stone lived  
##  5 philosophers_stone mr     
##  6 philosophers_stone and    
##  7 philosophers_stone mrs    
##  8 philosophers_stone dursley
##  9 philosophers_stone of     
## 10 philosophers_stone number 
## # ... with 1,089,376 more rows
```
…
