…
Therefore in this class we will generally stick to American spelling.


## Saving transformed data

`dplyr` never overwrites existing data. If you want a copy of the transformed data for later use in the program, **you need to explicitly save it**. You can do this by using **the assignment operator `<-`**:


```r
filter(.data = diamonds, cut == "Ideal") # printed, but not saved
```

```
## # A tibble: 21,551 x 10
##    carat cut   color clarity depth table price     x     y     z
##    <dbl> <ord> <ord> <ord>   <dbl> <dbl> <int> <dbl> <dbl> <dbl>
##  1  0.23 Ideal E     SI2      61.5    55   326  3.95  3.98  2.43
##  2  0.23 Ideal J     VS1      62.8    56   340  3.93  3.9   2.46
##  3  0.31 Ideal J     SI2      62.2    54   344  4.35  4.37  2.71
##  4  0.3  Ideal I     SI2      62      54   348  4.31  4.34  2.68
##  5  0.33 Ideal I     SI2      61.8    55   403  4.49  4.51  2.78
##  6  0.33 Ideal I     SI2      61.2    56   403  4.49  4.5   2.75
##  7  0.33 Ideal J     SI1      61.1    56   403  4.49  4.55  2.76
##  8  0.23 Ideal G     VS1      61.9    54   404  3.93  3.95  2.44
##  9  0.32 Ideal I     SI1      60.9    55   404  4.45  4.48  2.72
## 10  0.3  Ideal I     SI2      61      59   405  4.3   4.33  2.63
## # ... with 21,541 more rows
```

```r
diamonds_ideal <- filter(.data = diamonds, cut == "Ideal") # saved, but not printed
(diamonds_ideal <- filter(.data = diamonds, cut == "Ideal")) # saved and printed
```

```
## # A tibble: 21,551 x 10
##    carat cut   color clarity depth table price     x     y     z
##    <dbl> <ord> <ord> <ord>   <dbl> <dbl> <int> <dbl> <dbl> <dbl>
##  1  0.23 Ideal E     SI2      61.5    55   326  3.95  3.98  2.43
##  2  0.23 Ideal J     VS1      62.8    56   340  3.93  3.9   2.46
##  3  0.31 Ideal J     SI2      62.2    54   344  4.35  4.37  2.71
##  4  0.3  Ideal I     SI2      62      54   348  4.31  4.34  2.68
##  5  0.33 Ideal I     SI2      61.8    55   403  4.49  4.51  2.78
##  6  0.33 Ideal I     SI2      61.2    56   403  4.49  4.5   2.75
##  7  0.33 Ideal J     SI1      61.1    56   403  4.49  4.55  2.76
##  8  0.23 Ideal G     VS1      61.9    54   404  3.93  3.95  2.44
##  9  0.32 Ideal I     SI1      60.9    55   404  4.45  4.48  2.72
## 10  0.3  Ideal I     SI2      61      59   405  4.3   4.33  2.63
## # ... with 21,541 more rows
```
…
