Exploratory Data Analysis (EDA)
…
This is better, but we are not quite there yet. We need to use `dplyr` first to manipulate the data before visualizing it with `ggplot2`... we come back to this example next lecture when we talk more about `dplyr`!
-->

<!--
For example: aggregate the 54 states using some criteria and then display them...

```r
# count of observations by state
scorecard %>%
  count(state)
```

```
## # A tibble: 54 × 2
##    state     n
##    <chr> <int>
##  1 AK        4
##  2 AL       25
##  3 AR       17
##  4 AZ       16
##  5 CA      118
##  6 CO       21
##  7 CT       24
##  8 DC        7
##  9 DE        4
## 10 FL       57
## # ℹ 44 more rows
```
…
# check
scorecard %>% count(region, state)
```

```
## # A tibble: 54 × 3
##    region  state     n
##    <chr>   <chr> <int>
##  1 Midwest IA       33
##  2 Midwest IL       62
##  3 Midwest IN       45
##  4 Midwest KS       24
##  5 Midwest MI       45
##  6 Midwest MN       38
##  7 Midwest MO       49
##  8 Midwest ND        9
##  9 Midwest NE       18
## 10 Midwest OH       69
## # ℹ 44 more rows
```
…
